8 Mapping – KNBS: Introduction to R
…
Rows: 4867 Columns: 17
── Column specification ────────────────────────────────────────────────────────
Delimiter: ","
chr (9): Facility Name, Province, District, Division, LOCATION, Sub Location...
dbl (8): FID, Facility Number, HMIS, Facility Type, Latitude, Longitude, x, y

ℹ Use `spec()` to retrieve the full column specification for this data.
ℹ Specify the column types or set `show_col_types = FALSE` to quiet this message.

Solution

health

# A tibble: 4,867 × 17
     FID `Facility Number` `Facility Name`       HMIS Province District Division
   <dbl>             <dbl> <chr>                <dbl> <chr>    <chr>    <chr>   
 1     1                 2 BARGONI HEALTH CENT…  3606 COAST    LAMU     HINDI   
 2     2                 3 FAZA HEALTH CENTRE     626 COAST    LAMU     FAZA    
 3     3                 4 HINDI MAGOGONI DISP      0 COAST    LAMU     HINDI   
 4     4                 5 HINDI PRISON DISP      615 COAST    LAMU     HINDI   
 5     5                 6 HONGWE CATHOLIC HEA…   616 COAST    LAMU     MPEKETO…
 6     6                 7 ICHUNDWA DISP          625 COAST    LAMU     KIZINGI…
 7     7                 8 KIUNGA HEALTH CENTRE   627 COAST    LAMU     KIUNGA  
 8     8                 9 KIWAYU DISP            618 COAST    LAMU     KIZINGI…
 9     9                10 KIZINGITINI DISP       617 COAST    LAMU     KIZINGI…
10    10                11 LAKE KENYATTA HEALT…  2451 COAST    LAMU     MPEKETO…
# ℹ 4,857 more rows
# ℹ 10 more variables: LOCATION <chr>, `Sub Location` <chr>, Spatial_Re <chr>,
#   `Facility Type` <dbl>, Agency <chr>, Latitude <dbl>, Longitude <dbl>,
#   GlobalID <chr>, x <dbl>, y <dbl>
…
