6 Tidy Data – KNBS: Introduction to R
…
6  Tidy Data

6.1 What is tidy data anyway?

So far, your manipulation of data has focused on processes which make use of tidyverse functions, including filtering rows, selecting columns and creating new columns, as well as plotting data on charts. All of the functions you’ve seen have been easy to apply to the data you have.

Unfortunately, in real projects, this often won’t be the case because the data you’ll have often won’t be in tidy format, which is how most tidyverse functions expect to receive data.

Tidy data is a standardised structure of data designed make data cleaning and processing steps easy, and is straightforward even if it seems unusual at first.

You are likely to be most familiar with data laid out in a “messy” structure like the one below:

# A tibble: 30 × 8
   country                continent `1967` `1972` `1977` `1982` `1987` `1992`
   <fct>                  <fct>      <dbl>  <dbl>  <dbl>  <dbl>  <dbl>  <dbl>
 1 Albania                Europe      66.2   67.7   68.9   70.4   72     71.6
 2 Austria                Europe      70.1   70.6   72.2   73.2   74.9   76.0
 3 Belgium                Europe      70.9   71.4   72.8   73.9   75.4   76.5
 4 Bosnia and Herzegovina Europe      64.8   67.4   69.9   70.7   71.1   72.2
 5 Bulgaria               Europe      70.4   70.9   70.8   71.1   71.3   71.2
 6 Croatia                Europe      68.5   69.6   70.6   70.5   71.5   72.5
 7 Czech Republic         Europe      70.4   70.3   70.7   71.0   71.6   72.4
 8 Denmark                Europe      73.0   73.5   74.7   74.6   74.8   75.3
 9 Finland                Europe      69.8   70.9   72.5   74.6   74.8   75.7
10 France                 Europe      71.6   72.4   73.8   74.9   76.3   77.5
# ℹ 20 more rows
…
airports records data about each airport. You can identify each airport by its three letter airport code, making faa the primary key.

airports

# A tibble: 1,458 × 8
   faa   name                    lat    lon   alt    tz dst   tzone
   <chr> <chr>                 <dbl>  <dbl> <dbl> <dbl> <chr> <chr>
 1 04G   Lansdowne Airport      41.1  -80.6  1044    -5 A     Amer…
 2 06A   Moton Field Municipa…  32.5  -85.7   264    -6 A     Amer…
 3 06C   Schaumburg Regional    42.0  -88.1   801    -6 A     Amer…
 4 06N   Randall Airport        41.4  -74.4   523    -5 A     Amer…
 5 09J   Jekyll Island Airport  31.1  -81.4    11    -5 A     Amer…
 6 0A9   Elizabethton Municip…  36.4  -82.2  1593    -5 A     Amer…
 7 0G6   Williams County Airp…  41.5  -84.5   730    -5 A     Amer…
 8 0G7   Finger Lakes Regiona…  42.9  -76.8   492    -5 A     Amer…
 9 0P2   Shoestring Aviation …  39.8  -76.6  1000    -5 U     Amer…
10 0S9   Jefferson County Intl  48.1 -123.    108    -8 A     Amer…
# ℹ 1,448 more rows

planes records data about each plane. You can identify a plane by its tail number, making tailnum the primary key.

planes

# A tibble: 3,322 × 9
   tailnum  year type        manufacturer model engines seats speed
   <chr>   <int> <chr>       <chr>        <chr>   <int> <int> <int>
 1 N10156   2004 Fixed wing… EMBRAER      EMB-…       2    55    NA
 2 N102UW   1998 Fixed wing… AIRBUS INDU… A320…       2   182    NA
 3 N103US   1999 Fixed wing… AIRBUS INDU… A320…       2   182    NA
 4 N104UW   1999 Fixed wing… AIRBUS INDU… A320…       2   182    NA
 5 N10575   2002 Fixed wing… EMBRAER      EMB-…       2    55    NA
 6 N105UW   1999 Fixed wing… AIRBUS INDU… A320…       2   182    NA
 7 N107US   1999 Fixed wing… AIRBUS INDU… A320…       2   182    NA
 8 N108UW   1999 Fixed wing… AIRBUS INDU… A320…       2   182    NA
 9 N109UW   1999 Fixed wing… AIRBUS INDU… A320…       2   182    NA
10 N110UW   1999 Fixed wing… AIRBUS INDU… A320…       2   182    NA
# ℹ 3,312 more rows
# ℹ 1 more variable: engine <chr>

weather records data about the weather at the origin airports. You can identify each observation by the combination of location and time, making origin and time_hour the compound primary key.

weather

# A tibble: 26,115 × 15
   origin  year month   day  hour  temp  dewp humid wind_dir
   <chr>  <int> <int> <int> <int> <dbl> <dbl> <dbl>    <dbl>
 1 EWR     2013     1     1     1  39.0  26.1  59.4      270
 2 EWR     2013     1     1     2  39.0  27.0  61.6      250
 3 EWR     2013     1     1     3  39.0  28.0  64.4      240
 4 EWR     2013     1     1     4  39.9  28.0  62.2      250
 5 EWR     2013     1     1     5  39.0  28.0  64.4      260
 6 EWR     2013     1     1     6  37.9  28.0  67.2      240
 7 EWR     2013     1     1     7  39.0  28.0  64.4      240
 8 EWR     2013     1     1     8  39.9  28.0  62.2      250
 9 EWR     2013     1     1     9  39.9  28.0  62.2      260
10 EWR     2013     1     1    10  41    28.0  59.6      260
# ℹ 26,105 more rows
# ℹ 6 more variables: wind_speed <dbl>, wind_gust <dbl>,
#   precip <dbl>, pressure <dbl>, visib <dbl>, time_hour <dttm>
…
semi_join(): filters the first table to include only observations that match the second table

anti_join(): filters the first table to include only observations that don’t match the second table

In this course, you’ll learn how to use one mutating join, left_join(), and two filtering joins, semi_join() and anti_join().

6.7.1 Mutating joins

A mutating join allows you to combine variables from two data frames: it first matches observations by their keys, then copies across variables from one data frame to the other. Like mutate(), the join functions add variables to the right, so if your dataset has many variables, you won’t see the new ones. For these examples, we’ll make it easier to see what’s going on by creating a narrower dataset with just six variables.

flights2 <- flights |> 
  select(year, time_hour, origin, dest, tailnum, carrier)
flights2

# A tibble: 336,776 × 6
    year time_hour           origin dest  tailnum carrier
   <int> <dttm>              <chr>  <chr> <chr>   <chr>  
 1  2013 2013-01-01 05:00:00 EWR    IAH   N14228  UA     
 2  2013 2013-01-01 05:00:00 LGA    IAH   N24211  UA     
 3  2013 2013-01-01 05:00:00 JFK    MIA   N619AA  AA     
 4  2013 2013-01-01 05:00:00 JFK    BQN   N804JB  B6     
 5  2013 2013-01-01 06:00:00 LGA    ATL   N668DN  DL     
 6  2013 2013-01-01 05:00:00 EWR    ORD   N39463  UA     
 7  2013 2013-01-01 06:00:00 EWR    FLL   N516JB  B6     
 8  2013 2013-01-01 06:00:00 LGA    IAD   N829AS  EV     
 9  2013 2013-01-01 06:00:00 JFK    MCO   N593JB  B6     
10  2013 2013-01-01 06:00:00 LGA    ORD   N3ALAA  AA     
# ℹ 336,766 more rows

There are four types of mutating join, but there’s one that you’ll use almost all of the time: left_join(). It’s special because the output will always have the same rows as x, the data frame you’re joining to. The primary use of left_join() is to add in additional metadata. For example, we can use left_join() to add the full airline name to the flights2 data:

flights2 |>
  left_join(airlines)

Joining with `by = join_by(carrier)`

# A tibble: 336,776 × 7
    year time_hour           origin dest  tailnum carrier name                  
   <int> <dttm>              <chr>  <chr> <chr>   <chr>   <chr>                 
 1  2013 2013-01-01 05:00:00 EWR    IAH   N14228  UA      United Air Lines Inc. 
 2  2013 2013-01-01 05:00:00 LGA    IAH   N24211  UA      United Air Lines Inc. 
 3  2013 2013-01-01 05:00:00 JFK    MIA   N619AA  AA      American Airlines Inc.
 4  2013 2013-01-01 05:00:00 JFK    BQN   N804JB  B6      JetBlue Airways       
 5  2013 2013-01-01 06:00:00 LGA    ATL   N668DN  DL      Delta Air Lines Inc.  
 6  2013 2013-01-01 05:00:00 EWR    ORD   N39463  UA      United Air Lines Inc. 
 7  2013 2013-01-01 06:00:00 EWR    FLL   N516JB  B6      JetBlue Airways       
 8  2013 2013-01-01 06:00:00 LGA    IAD   N829AS  EV      ExpressJet Airlines I…
 9  2013 2013-01-01 06:00:00 JFK    MCO   N593JB  B6      JetBlue Airways       
10  2013 2013-01-01 06:00:00 LGA    ORD   N3ALAA  AA      American Airlines Inc.
# ℹ 336,766 more rows

Or we could find out the temperature and wind speed when each plane departed:

flights2 |> 
  left_join(weather |> select(origin, time_hour, temp, wind_speed))

Joining with `by = join_by(time_hour, origin)`

# A tibble: 336,776 × 8
    year time_hour           origin dest  tailnum carrier  temp wind_speed
   <int> <dttm>              <chr>  <chr> <chr>   <chr>   <dbl>      <dbl>
 1  2013 2013-01-01 05:00:00 EWR    IAH   N14228  UA       39.0       12.7
 2  2013 2013-01-01 05:00:00 LGA    IAH   N24211  UA       39.9       15.0
 3  2013 2013-01-01 05:00:00 JFK    MIA   N619AA  AA       39.0       15.0
 4  2013 2013-01-01 05:00:00 JFK    BQN   N804JB  B6       39.0       15.0
 5  2013 2013-01-01 06:00:00 LGA    ATL   N668DN  DL       39.9       16.1
 6  2013 2013-01-01 05:00:00 EWR    ORD   N39463  UA       39.0       12.7
 7  2013 2013-01-01 06:00:00 EWR    FLL   N516JB  B6       37.9       11.5
 8  2013 2013-01-01 06:00:00 LGA    IAD   N829AS  EV       39.9       16.1
 9  2013 2013-01-01 06:00:00 JFK    MCO   N593JB  B6       37.9       13.8
10  2013 2013-01-01 06:00:00 LGA    ORD   N3ALAA  AA       39.9       16.1
# ℹ 336,766 more rows

Or what size of plane was flying:

flights2 |> 
  left_join(planes |> select(tailnum, type, engines, seats))

Joining with `by = join_by(tailnum)`

# A tibble: 336,776 × 9
    year time_hour           origin dest  tailnum carrier type     engines seats
   <int> <dttm>              <chr>  <chr> <chr>   <chr>   <chr>      <int> <int>
 1  2013 2013-01-01 05:00:00 EWR    IAH   N14228  UA      Fixed w…       2   149
 2  2013 2013-01-01 05:00:00 LGA    IAH   N24211  UA      Fixed w…       2   149
 3  2013 2013-01-01 05:00:00 JFK    MIA   N619AA  AA      Fixed w…       2   178
 4  2013 2013-01-01 05:00:00 JFK    BQN   N804JB  B6      Fixed w…       2   200
 5  2013 2013-01-01 06:00:00 LGA    ATL   N668DN  DL      Fixed w…       2   178
 6  2013 2013-01-01 05:00:00 EWR    ORD   N39463  UA      Fixed w…       2   191
 7  2013 2013-01-01 06:00:00 EWR    FLL   N516JB  B6      Fixed w…       2   200
 8  2013 2013-01-01 06:00:00 LGA    IAD   N829AS  EV      Fixed w…       2    55
 9  2013 2013-01-01 06:00:00 JFK    MCO   N593JB  B6      Fixed w…       2   200
10  2013 2013-01-01 06:00:00 LGA    ORD   N3ALAA  AA      <NA>          NA    NA
# ℹ 336,766 more rows

When left_join() fails to find a match for a row in x, it fills in the new variables with missing values. For example, there’s no information about the plane with tail number N3ALAA so the type, engines, and seats will be missing:

flights2 |> 
  filter(tailnum == "N3ALAA") |> 
  left_join(planes |> select(tailnum, type, engines, seats))

Joining with `by = join_by(tailnum)`

# A tibble: 63 × 9
    year time_hour           origin dest  tailnum carrier type  engines seats
   <int> <dttm>              <chr>  <chr> <chr>   <chr>   <chr>   <int> <int>
 1  2013 2013-01-01 06:00:00 LGA    ORD   N3ALAA  AA      <NA>       NA    NA
 2  2013 2013-01-02 18:00:00 LGA    ORD   N3ALAA  AA      <NA>       NA    NA
 3  2013 2013-01-03 06:00:00 LGA    ORD   N3ALAA  AA      <NA>       NA    NA
 4  2013 2013-01-07 19:00:00 LGA    ORD   N3ALAA  AA      <NA>       NA    NA
 5  2013 2013-01-08 17:00:00 JFK    ORD   N3ALAA  AA      <NA>       NA    NA
 6  2013 2013-01-16 06:00:00 LGA    ORD   N3ALAA  AA      <NA>       NA    NA
 7  2013 2013-01-20 18:00:00 LGA    ORD   N3ALAA  AA      <NA>       NA    NA
 8  2013 2013-01-22 17:00:00 JFK    ORD   N3ALAA  AA      <NA>       NA    NA
 9  2013 2013-10-11 06:00:00 EWR    MIA   N3ALAA  AA      <NA>       NA    NA
10  2013 2013-10-14 08:00:00 JFK    BOS   N3ALAA  AA      <NA>       NA    NA
# ℹ 53 more rows

We’ll come back to this problem a few times in the rest of the chapter.

6.7.2 Specifying join keys

By default, left_join() will use all variables that appear in both data frames as the join key (a “natural join”). This is convenient but doesn’t always work. For example, if we try to join flights2 with the complete planes dataset:

flights2 |> 
  left_join(planes)

Joining with `by = join_by(year, tailnum)`

# A tibble: 336,776 × 13
    year time_hour           origin dest  tailnum carrier type  manufacturer
   <int> <dttm>              <chr>  <chr> <chr>   <chr>   <chr> <chr>       
 1  2013 2013-01-01 05:00:00 EWR    IAH   N14228  UA      <NA>  <NA>        
 2  2013 2013-01-01 05:00:00 LGA    IAH   N24211  UA      <NA>  <NA>        
 3  2013 2013-01-01 05:00:00 JFK    MIA   N619AA  AA      <NA>  <NA>        
 4  2013 2013-01-01 05:00:00 JFK    BQN   N804JB  B6      <NA>  <NA>        
 5  2013 2013-01-01 06:00:00 LGA    ATL   N668DN  DL      <NA>  <NA>        
 6  2013 2013-01-01 05:00:00 EWR    ORD   N39463  UA      <NA>  <NA>        
 7  2013 2013-01-01 06:00:00 EWR    FLL   N516JB  B6      <NA>  <NA>        
 8  2013 2013-01-01 06:00:00 LGA    IAD   N829AS  EV      <NA>  <NA>        
 9  2013 2013-01-01 06:00:00 JFK    MCO   N593JB  B6      <NA>  <NA>        
10  2013 2013-01-01 06:00:00 LGA    ORD   N3ALAA  AA      <NA>  <NA>        
# ℹ 336,766 more rows
# ℹ 5 more variables: model <chr>, engines <int>, seats <int>, speed <int>,
#   engine <chr>

We get many missing matches because our join is trying to use both tailnum and year as a compound key. But these year columns mean different things: in flights%year, it’s the year the flight occurred; in planes$year, it’s the year the plane was built.

flights2 |> 
  left_join(planes, join_by(tailnum))

# A tibble: 336,776 × 14
   year.x time_hour           origin dest  tailnum carrier year.y type          
    <int> <dttm>              <chr>  <chr> <chr>   <chr>    <int> <chr>         
 1   2013 2013-01-01 05:00:00 EWR    IAH   N14228  UA        1999 Fixed wing mu…
 2   2013 2013-01-01 05:00:00 LGA    IAH   N24211  UA        1998 Fixed wing mu…
 3   2013 2013-01-01 05:00:00 JFK    MIA   N619AA  AA        1990 Fixed wing mu…
 4   2013 2013-01-01 05:00:00 JFK    BQN   N804JB  B6        2012 Fixed wing mu…
 5   2013 2013-01-01 06:00:00 LGA    ATL   N668DN  DL        1991 Fixed wing mu…
 6   2013 2013-01-01 05:00:00 EWR    ORD   N39463  UA        2012 Fixed wing mu…
 7   2013 2013-01-01 06:00:00 EWR    FLL   N516JB  B6        2000 Fixed wing mu…
 8   2013 2013-01-01 06:00:00 LGA    IAD   N829AS  EV        1998 Fixed wing mu…
 9   2013 2013-01-01 06:00:00 JFK    MCO   N593JB  B6        2004 Fixed wing mu…
10   2013 2013-01-01 06:00:00 LGA    ORD   N3ALAA  AA          NA <NA>          
# ℹ 336,766 more rows
# ℹ 6 more variables: manufacturer <chr>, model <chr>, engines <int>,
#   seats <int>, speed <int>, engine <chr>

Note that the year variables are disambiguated in the output with a suffix (year.x and year.y).

join_by(tailnum) is short for join_by(tailnum == tailnum). The latter form is useful when the key variables have different names in each table:

flights2 |> 
  left_join(airports, join_by(dest == faa))

# A tibble: 336,776 × 13
    year time_hour           origin dest  tailnum carrier name         lat   lon
   <int> <dttm>              <chr>  <chr> <chr>   <chr>   <chr>      <dbl> <dbl>
 1  2013 2013-01-01 05:00:00 EWR    IAH   N14228  UA      George Bu…  30.0 -95.3
 2  2013 2013-01-01 05:00:00 LGA    IAH   N24211  UA      George Bu…  30.0 -95.3
 3  2013 2013-01-01 05:00:00 JFK    MIA   N619AA  AA      Miami Intl  25.8 -80.3
 4  2013 2013-01-01 05:00:00 JFK    BQN   N804JB  B6      <NA>        NA    NA  
 5  2013 2013-01-01 06:00:00 LGA    ATL   N668DN  DL      Hartsfiel…  33.6 -84.4
 6  2013 2013-01-01 05:00:00 EWR    ORD   N39463  UA      Chicago O…  42.0 -87.9
 7  2013 2013-01-01 06:00:00 EWR    FLL   N516JB  B6      Fort Laud…  26.1 -80.2
 8  2013 2013-01-01 06:00:00 LGA    IAD   N829AS  EV      Washingto…  38.9 -77.5
 9  2013 2013-01-01 06:00:00 JFK    MCO   N593JB  B6      Orlando I…  28.4 -81.3
10  2013 2013-01-01 06:00:00 LGA    ORD   N3ALAA  AA      Chicago O…  42.0 -87.9
# ℹ 336,766 more rows
# ℹ 4 more variables: alt <dbl>, tz <dbl>, dst <chr>, tzone <chr>

flights2 |> 
  left_join(airports, join_by(origin == faa))

# A tibble: 336,776 × 13
    year time_hour           origin dest  tailnum carrier name         lat   lon
   <int> <dttm>              <chr>  <chr> <chr>   <chr>   <chr>      <dbl> <dbl>
 1  2013 2013-01-01 05:00:00 EWR    IAH   N14228  UA      Newark Li…  40.7 -74.2
 2  2013 2013-01-01 05:00:00 LGA    IAH   N24211  UA      La Guardia  40.8 -73.9
 3  2013 2013-01-01 05:00:00 JFK    MIA   N619AA  AA      John F Ke…  40.6 -73.8
 4  2013 2013-01-01 05:00:00 JFK    BQN   N804JB  B6      John F Ke…  40.6 -73.8
 5  2013 2013-01-01 06:00:00 LGA    ATL   N668DN  DL      La Guardia  40.8 -73.9
 6  2013 2013-01-01 05:00:00 EWR    ORD   N39463  UA      Newark Li…  40.7 -74.2
 7  2013 2013-01-01 06:00:00 EWR    FLL   N516JB  B6      Newark Li…  40.7 -74.2
 8  2013 2013-01-01 06:00:00 LGA    IAD   N829AS  EV      La Guardia  40.8 -73.9
 9  2013 2013-01-01 06:00:00 JFK    MCO   N593JB  B6      John F Ke…  40.6 -73.8
10  2013 2013-01-01 06:00:00 LGA    ORD   N3ALAA  AA      La Guardia  40.8 -73.9
# ℹ 336,766 more rows
# ℹ 4 more variables: alt <dbl>, tz <dbl>, dst <chr>, tzone <chr>
…
